sim/verilog/verification/uvm/core/apb4/vivado/dump.vcd
$date
   Mon Apr 10 20:45:54 2023
$end
$version
  2020.2
$end
$timescale
  1ps
$end
$scope module peripheral_uvm_testbench $end
$var reg 1 ! clk $end
$var reg 1 " rst $end
$scope module vif $end
$var wire 1 # clk $end
$var wire 1 $ rst $end
$var reg 8 % ip1 [7:0] $end
$var reg 8 & ip2 [7:0] $end
$var reg 9 ' out [8:0] $end
$upscope $end
$scope module dut $end
$var wire 1 ( clk $end
$var wire 1 ) rst $end
$var wire 8 * in1 [7:0] $end
$var wire 8 + in2 [7:0] $end
$var reg 9 , out [8:0] $end
$upscope $end
$upscope $end
$enddefinitions $end
#0
$dumpvars
0!
1"
0#
1$
bx %
bx &
b0 '
0(
1)
bx *
bx +
b0 ,
$end
#2000
1!
1#
1(
b0 ,
#4000
0!
0#
0(
#5000
0"
0$
b100010 %
b101100 &
0)
b100010 *
b101100 +
#6000
1!
1#
b1001110 '
1(
b1001110 ,
#8000
0!
0#
0(
#10000
1!
1#
b11111 %
b11111 &
1(
b11111 *
b11111 +
b1001110 ,
#12000
0!
0#
0(
#14000
1!
1#
b111110 '
1(
b111110 ,
#15000
b110010 %
b111011 &
b110010 *
b111011 +
#16000
0!
0#
0(
#18000
1!
1#
b1101101 '
1(
b1101101 ,
#20000
0!
0#
b1001 %
b1110 &
0(
b1001 *
b1110 +
#22000
1!
1#
b10111 '
1(
b10111 ,
#24000
0!
0#
0(
#25000
b101100 %
b1010111 &
b101100 *
b1010111 +
#26000
1!
1#
b10000011 '
1(
b10000011 ,
#28000
0!
0#
0(
#30000
1!
1#
b1000010 %
b100101 &
1(
b1000010 *
b100101 +
b10000011 ,
#32000
0!
0#
0(
#34000
1!
1#
b1100111 '
1(
b1100111 ,
#35000
b11010 %
b111111 &
b11010 *
b111111 +
#36000
0!
0#
0(
#38000
1!
1#
b1011001 '
1(
b1011001 ,
#40000
0!
0#
b110 %
b101001 &
0(
b110 *
b101001 +
#42000
1!
1#
b101111 '
1(
b101111 ,
#44000
0!
0#
0(
#45000
b1001 %
b1001010 &
b1001 *
b1001010 +
#46000
1!
1#
b1010011 '
1(
b1010011 ,
#48000
0!
0#
0(
#50000
1!
1#
b110101 %
b1001 &
1(
b110101 *
b1001 +
b1010011 ,
